[gd_scene load_steps=3 format=2]

[ext_resource path="res://scenes/source/Ship.tscn" type="PackedScene" id=1]
[ext_resource path="res://scripts/EnemyShip.gd" type="Script" id=2]

[node name="KinematicBody2D" instance=ExtResource( 1 )]

rotation = 3.14159
script = ExtResource( 2 )
_sections_unfolded = [ "Collision", "Transform" ]
reloadTime = 0.1
aimDistortion = 0.0
raycastCollisionMask = 4

[node name="DeadTimer" type="Timer" parent="." index="5"]

process_mode = 1
wait_time = 1.0
one_shot = true
autostart = false


