[gd_scene load_steps=7 format=2]

[ext_resource path="res://resources/textures/ExplosionTexture.png" type="Texture" id=1]

[sub_resource type="Gradient" id=1]

offsets = PoolRealArray( 0, 0.336996, 0.684982, 1 )
colors = PoolColorArray( 1, 1, 1, 1, 0.980469, 0.967243, 0.134048, 0.948526, 1, 0.257812, 0, 0.928166, 0, 0, 0, 0.143647 )

[sub_resource type="GradientTexture" id=2]

flags = 4
gradient = SubResource( 1 )
width = 2048

[sub_resource type="Curve" id=3]

min_value = 0.0
max_value = 1.0
bake_resolution = 100
_data = [ Vector2( 0.167111, 0.994141 ), 0.0, -1.64353, 0, 0, Vector2( 1, 0.295898 ), -3.95752, 0.0, 0, 0 ]

[sub_resource type="CurveTexture" id=4]

flags = 4
width = 2048
curve = SubResource( 3 )

[sub_resource type="ParticlesMaterial" id=5]

render_priority = 0
trail_divisor = 1
emission_shape = 1
emission_sphere_radius = 16.0
flag_align_y = false
flag_rotate_y = false
flag_disable_z = true
spread = 180.0
flatness = 0.0
gravity = Vector3( 0, 0, 0 )
initial_velocity = 50.0
initial_velocity_random = 0.0
angular_velocity = 360.0
angular_velocity_random = 0.61
orbit_velocity = 0.0
orbit_velocity_random = 0.0
linear_accel = 0.0
linear_accel_random = 0.0
radial_accel = 0.0
radial_accel_random = 0.0
tangential_accel = 0.0
tangential_accel_random = 0.0
damping = 0.0
damping_random = 0.0
angle = 0.0
angle_random = 0.0
scale = 2.0
scale_random = 0.09
scale_curve = SubResource( 4 )
color_ramp = SubResource( 2 )
hue_variation = 0.0
hue_variation_random = 0.0
anim_speed = 0.0
anim_speed_random = 0.0
anim_offset = 0.0
anim_offset_random = 0.0
anim_loop = false
_sections_unfolded = [ "Angular Velocity", "Color", "Emission Shape", "Scale", "Spread" ]

[node name="ExplosionParticles" type="Particles2D"]

position = Vector2( -4.69907, -7.09539e-07 )
rotation = 3.14159
emitting = false
amount = 100
lifetime = 0.5
one_shot = true
preprocess = 0.0
speed_scale = 1.0
explosiveness = 1.0
randomness = 0.0
fixed_fps = 0
fract_delta = true
visibility_rect = Rect2( -100, -100, 200, 200 )
local_coords = false
draw_order = 0
process_material = SubResource( 5 )
texture = ExtResource( 1 )
normal_map = null
h_frames = 1
v_frames = 1
_sections_unfolded = [ "Process Material", "Textures", "Time" ]


